<?xml version="1.0" encoding="utf-8"?>
<!-- Generator: Adobe Illustrator 24.2.0, SVG Export Plug-In . SVG Version: 6.00 Build 0)  -->
<svg version="1.1" id="Layer_1" xmlns="http://www.w3.org/2000/svg" xmlns:xlink="http://www.w3.org/1999/xlink" x="0px" y="0px"
	 viewBox="0 0 247.5 198" style="enable-background:new 0 0 247.5 198;" xml:space="preserve">
<style type="text/css">
	.st0{fill-rule:evenodd;clip-rule:evenodd;}
</style>
<g>
	<polygon class="st0" points="227.86,108.59 227.86,63.23 191.21,52.01 191.21,72.27 162.08,61.36 162.08,41.1 125.42,24 
		88.77,41.1 88.77,61.36 59.64,72.27 59.64,52.01 22.98,63.23 22.98,108.59 125.42,69.36 227.86,108.59 	"/>
	<path class="st0" d="M71.57,128.85l53.85,20.62l53.85-20.62l-15.56-5.96L143,130.82l-24.29-9.3l45.01-17.24l64.15,24.57
		l-102.44,39.23L22.98,128.85l102.44-39.23l24.29,9.31l-4.49,1.72C120.68,110.05,96.12,119.45,71.57,128.85L71.57,128.85z"/>
</g>
</svg>
